module github.com/mattermost/mattermost-plugin-starter-template

go 1.12

require (
	github.com/go-sql-driver/mysql v1.5.0
	github.com/mattermost/mattermost-server/v5 v5.3.2-0.20200723144633-ed34468996e6
	github.com/pkg/errors v0.9.1
	github.com/stretchr/testify v1.6.1
)
